25

10 13
9
r 4 6 e
r 0 11 w
h 1 2 n
t 1 6 s
t 8 7 n
h 2 11 e
r 3 8 n
t 7 2 s
t 1 3 e
8 5

14 19
1
r 12 17 n
3 4

15 9
7
f 4 7 s
h 6 7 w
h 7 6 n
t 9 5 s
f 0 2 e
r 4 6 e
f 0 3 e
7 2

4 7
2
t 0 4 n
h 3 3 s
10 4

15 15
3
r 1 14 s
r 8 1 n
t 7 1 s
6 1

1 5
8
r 0 2 w
h 0 3 n
r 0 0 s
h 0 0 e
f 0 3 w
f 0 3 e
h 0 0 w
h 0 0 e
6 1

10 15
5
r 7 6 e
t 3 3 n
r 2 0 s
f 7 13 w
t 8 10 s
1 2

13 18
5
r 3 10 s
f 2 15 s
h 8 12 s
h 5 12 e
h 3 7 s
9 4

19 13
2
t 7 0 e
r 5 5 w
15 1

10 1
3
r 5 0 n
r 8 0 w
h 5 0 w
7 3

10 2
8
r 4 1 w
r 0 0 w
t 9 1 e
f 1 0 e
t 3 1 e
h 4 0 w
h 2 1 e
f 7 0 w
13 2

4 20
1
r 3 7 w
2 3

1 17
9
h 0 9 s
f 0 3 e
r 0 4 s
r 0 3 n
h 0 9 e
t 0 13 w
f 0 2 w
f 0 9 n
r 0 13 n
14 1

15 19
2
f 0 13 w
h 0 4 n
2 1

13 19
5
f 3 16 e
t 11 15 w
t 0 18 n
r 4 5 n
f 4 0 e
2 4

11 8
7
h 0 6 w
r 6 5 n
t 2 2 s
h 0 3 n
h 3 1 e
h 5 4 w
f 6 1 e
15 5

9 5
3
t 6 2 w
r 7 3 e
r 8 1 w
7 1

11 15
10
t 8 7 n
h 8 8 n
f 4 8 n
t 2 1 n
f 3 1 n
f 8 12 e
h 8 12 n
r 1 13 w
f 10 7 n
f 8 10 s
8 1

7 13
8
h 3 10 w
t 1 4 n
h 2 0 e
h 5 7 n
r 1 2 s
f 1 11 e
h 5 5 e
f 5 12 s
4 2

9 14
3
h 5 12 s
h 5 6 w
h 1 0 e
12 3

20 15
5
h 9 1 w
t 12 11 e
f 1 6 n
h 14 9 n
h 0 2 w
14 5

1 5
8
f 0 2 n
f 0 1 w
h 0 1 s
f 0 0 w
h 0 2 n
r 0 2 e
r 0 3 n
h 0 0 s
3 1

3 3
5
r 2 2 w
f 0 2 s
r 1 2 n
t 1 2 w
r 0 2 n
7 4

3 13
1
h 1 10 s
4 4

13 6
6
h 2 2 e
t 8 3 s
t 6 5 n
f 2 4 e
f 0 4 s
r 2 4 s
6 2
