21

184 145
10
r 48 90 s
t 132 56 n
r 22 85 e
f 161 10 n
r 34 13 w
r 77 14 s
h 116 85 e
t 44 100 w
t 67 103 e
t 89 130 s
20 4

99 72
10
h 21 47 e
h 93 42 n
h 61 2 s
r 45 35 s
h 61 24 e
t 73 32 n
r 32 58 e
r 12 65 s
r 90 64 w
r 53 62 w
5 5

180 75
7
h 49 70 s
f 112 45 e
t 46 42 n
f 158 57 n
r 6 66 n
r 31 57 e
h 10 11 s
17 20

107 154
6
f 67 127 w
f 65 138 s
r 80 25 s
h 98 111 e
h 96 89 e
f 68 57 e
8 6

80 95
2
f 40 63 n
t 18 57 e
1 4

108 65
7
h 107 12 s
h 75 3 s
h 100 30 e
f 3 24 s
r 5 12 s
h 74 3 s
t 35 33 s
6 10

77 52
5
t 1 10 s
h 51 40 s
h 3 17 n
t 44 48 w
t 36 11 e
8 6

165 112
10
h 150 9 e
f 52 94 s
t 48 94 s
t 98 62 n
f 127 71 n
f 21 26 w
h 162 64 w
r 47 41 w
t 61 84 n
h 68 14 s
1 6

72 131
9
t 65 41 s
h 63 35 e
t 10 130 n
r 7 11 s
h 43 28 s
h 21 33 n
h 25 40 n
f 45 30 s
r 33 127 e
14 12

26 113
1
h 19 95 e
11 5

40 169
1
f 4 52 n
8 4

138 22
3
r 2 17 e
r 5 15 s
r 12 13 s
16 6

106 154
7
f 55 12 e
r 21 17 s
h 8 96 w
f 61 0 s
f 49 124 e
r 30 114 s
f 16 48 n
12 5

40 163
2
h 24 15 n
f 38 98 w
3 8

182 32
5
r 33 29 w
t 124 7 n
t 120 10 w
f 60 24 w
h 102 29 s
6 1

67 192
7
r 43 175 s
h 56 39 n
t 56 126 w
r 7 105 s
r 29 161 e
r 13 87 s
r 49 49 s
6 15

121 166
5
h 116 42 s
f 90 78 w
f 112 154 w
t 55 122 s
r 42 98 w
5 19

117 15
4
t 37 8 w
r 33 3 s
h 39 7 n
h 47 14 e
8 18

136 13
2
h 64 8 s
t 113 7 e
5 17

163 56
6
t 96 43 s
h 120 10 n
f 17 7 n
f 148 33 w
t 33 16 e
r 26 23 w
17 20

169 158
10
r 81 111 n
f 89 24 s
h 163 14 w
t 114 71 n
f 143 41 e
f 67 39 s
t 15 71 e
f 117 112 w
t 48 82 s
f 1 93 e
2 2
